<?xml version="1.0" encoding="utf-8"?>
<!-- Generator: Adobe Illustrator 23.0.2, SVG Export Plug-In . SVG Version: 6.00 Build 0)  -->
<svg version="1.1" id="Layer_1" xmlns="http://www.w3.org/2000/svg" xmlns:xlink="http://www.w3.org/1999/xlink" x="0px" y="0px"
	 viewBox="0 0 136.9 136.9" style="enable-background:new 0 0 136.9 136.9;" xml:space="preserve">
<style type="text/css">
	.st0{fill:#EF265B;}
	.st1{fill:#2EC4ED;}
</style>
<path class="st0" d="M129.8,59.2c0-20.7-16.9-37.6-37.6-37.6c-20.7,0-37.6,16.9-37.6,37.6c0,19.7,15.2,35.8,34.4,37.5v10.9h-7.4
	c-1.8,0-3.2,1.4-3.2,3.2c0,1.8,1.4,3.2,3.2,3.2h7.4v8.7c0,1.8,1.4,3.2,3.2,3.2c1.8,0,3.2-1.4,3.2-3.2V114h7.4c1.8,0,3.2-1.4,3.2-3.2
	c0-1.8-1.4-3.2-3.2-3.2h-7.4V96.7C114.6,95,129.8,78.8,129.8,59.2z M61,59.2C61,42,75,28,92.2,28c17.2,0,31.2,14,31.2,31.2
	c0,17.2-14,31.2-31.2,31.2C75,90.3,61,76.4,61,59.2z"/>
<path class="st1" d="M93.4,14.2C93.4,14.1,93.4,14.1,93.4,14.2c0-0.1,0-0.2,0-0.2c0-0.1,0-0.2,0-0.2c0-0.1,0-0.1,0-0.2
	c0-0.1,0-0.2-0.1-0.3c0-0.1,0-0.1-0.1-0.2c0,0,0-0.1-0.1-0.1c0-0.1-0.1-0.2-0.1-0.3c0,0-0.1-0.1-0.1-0.1c0,0,0-0.1-0.1-0.1
	c-0.1-0.1-0.1-0.2-0.2-0.3c0,0-0.1-0.1-0.1-0.1c0,0,0,0,0,0c0,0,0,0,0,0c0,0,0,0,0,0c-0.1-0.1-0.2-0.2-0.3-0.2c0,0-0.1,0-0.1-0.1
	c0,0-0.1,0-0.1-0.1c0,0,0,0,0,0c-0.1-0.1-0.2-0.1-0.3-0.2c0,0-0.1,0-0.1-0.1c0,0-0.1,0-0.1,0c0,0,0,0-0.1,0c-0.1,0-0.2-0.1-0.3-0.1
	c-0.1,0-0.1,0-0.2,0c0,0-0.1,0-0.1,0c-0.1,0-0.2,0-0.3,0c0,0-0.1,0-0.1,0c0,0-0.1,0-0.1,0c-0.1,0-0.1,0-0.2,0c0,0-0.1,0-0.1,0
	l-16,0.9c-1.8,0.1-3.1,1.6-3,3.4c0.1,1.7,1.5,3.1,3.2,3.1c0.1,0,0.1,0,0.2,0l7.5-0.4L69.5,30.3c-6.8-5.7-15.3-8.8-24.2-8.8
	c-10,0-19.5,3.9-26.6,11C4,47.2,4,71.1,18.7,85.7c7.1,7.1,16.6,11,26.6,11c10,0,19.5-3.9,26.6-11c13.9-13.9,14.6-36.1,2.2-50.8
	l12.4-12.4L86.1,30c-0.1,1.8,1.3,3.3,3,3.4c0.1,0,0.1,0,0.2,0c1.7,0,3.1-1.3,3.2-3.1l0.9-16c0,0,0-0.1,0-0.1
	C93.4,14.3,93.4,14.2,93.4,14.2z M67.3,81.2c-5.9,5.9-13.7,9.1-22,9.1c-8.3,0-16.1-3.2-22-9.1c-12.1-12.1-12.1-31.9,0-44.1
	c5.9-5.9,13.7-9.1,22-9.1c8.3,0,16.1,3.2,22,9.1C79.5,49.2,79.5,69,67.3,81.2z"/>
</svg>
